nowcast model comparison
…
nowcast model comparison

Baseline

This model predicts the last available semester case count (integer) or disease status (binary) for a given country + disease + taxa. NA values are imputed as 0.

## $cases_tibble
## # A tibble: 457,807 x 16
##    country_iso3c report_year report_semester disease disease_populat taxa 
##    <chr>               <int>           <int> <chr>   <chr>            <chr>
##  1 ABW                  2011               2 highly domestic         birds
##  2 ABW                  2013               1 highly domestic         birds
##  3 ABW                  2013               2 highly domestic         birds
##  4 ABW                  2011               1 low pa domestic         birds
##  5 ABW                  2011               2 low pa domestic         birds
##  6 ABW                  2012               1 low pa domestic         birds
##  7 ABW                  2012               2 low pa domestic         birds
##  8 ABW                  2013               1 low pa domestic         birds
##  9 ABW                  2013               2 low pa domestic         birds
## 10 ABW                  2011               1 primar domestic         birds
## #  with 457,797 more rows, and 10 more variables: disease_status_actual <dbl>,
## #   cases_actual <int>, cases_lag1 <dbl>, cases_predicted <dbl>,
## #   cases_error <dbl>, cases_dirchange_actual <chr>,
## #   cases_dirchange_predicted <chr>, cases_dirchange_match <lgl>,
## #   disease_status_predicted <int>, disease_status_match <lgl>
## 
## $disease_status_confusion_matrix
##                      disease_status_predicted
## disease_status_actual      0      1
…
